<?xml version="1.0" encoding="UTF-8" standalone="no"?>
<!DOCTYPE svg PUBLIC "-//W3C//DTD SVG 1.1//EN"
 "http://www.w3.org/Graphics/SVG/1.1/DTD/svg11.dtd">
<!-- Generated by graphviz version 2.43.0 (0)
 -->
<!-- Title: sample_ast Pages: 1 -->
<svg width="134pt" height="116pt"
 viewBox="0.00 0.00 134.00 116.00" xmlns="http://www.w3.org/2000/svg" xmlns:xlink="http://www.w3.org/1999/xlink">
<g id="graph0" class="graph" transform="scale(1 1) rotate(0) translate(4 112)">
<title>sample_ast</title>
<!-- root -->
<g id="node1" class="node">
<title>root</title>
<ellipse fill="none" stroke="white" cx="63" cy="-90" rx="36" ry="18"/>
<text text-anchor="middle" x="63" y="-86.3" font-family="sans-serif" font-size="14.00" fill="white">apply</text>
</g>
<!-- l -->
<g id="node2" class="node">
<title>l</title>
<ellipse fill="none" stroke="white" cx="27" cy="-18" rx="27" ry="18"/>
<text text-anchor="middle" x="27" y="-14.3" font-family="sans-serif" font-size="14.00" fill="white">f</text>
</g>
<!-- root&#45;&gt;l -->
<g id="edge1" class="edge">
<title>root&#45;&gt;l</title>
<path fill="none" stroke="white" d="M54.47,-72.41C50.16,-64.04 44.85,-53.71 40.05,-44.37"/>
<polygon fill="white" stroke="white" points="43.16,-42.76 35.47,-35.47 36.93,-45.96 43.16,-42.76"/>
</g>
<!-- r -->
<g id="node3" class="node">
<title>r</title>
<ellipse fill="none" stroke="white" cx="99" cy="-18" rx="27" ry="18"/>
<text text-anchor="middle" x="99" y="-14.3" font-family="sans-serif" font-size="14.00" fill="white">2</text>
</g>
<!-- root&#45;&gt;r -->
<g id="edge2" class="edge">
<title>root&#45;&gt;r</title>
<path fill="none" stroke="white" d="M71.53,-72.41C75.84,-64.04 81.15,-53.71 85.95,-44.37"/>
<polygon fill="white" stroke="white" points="89.07,-45.96 90.53,-35.47 82.84,-42.76 89.07,-45.96"/>
</g>
</g>
</svg>
